Chapter 1 Visualization | 01-visualization.knit
…
If that happens, you need to install the package:

install.packages("tidyverse")

Then, run library(tidyverse) once again.

1.2.1 Examining trains

Most data comes to us in “spreadsheet”-type format. These datasets are called data frames or tibbles in R. Let’s explore the trains tibble from the primer.data package. This data comes from @enos2014, which investigated attitudes toward immigration among Boston commuters.

library(primer.data)
trains

## # A tibble: 115 x 14
##    treatment att_start att_end gender race  liberal party      age income line    station   hisp_perc ideology_start
##    <fct>         <dbl>   <dbl> <chr>  <chr> <lgl>   <chr>    <int>  <dbl> <chr>   <chr>         <dbl>          <int>
##  1 Treated          11      11 Female White FALSE   Democrat    31 135000 Framin… Grafton      0.0264              3
##  2 Treated           9      10 Female White FALSE   Republi…    34 105000 Framin… Southbor…    0.0154              4
##  3 Treated           3       5 Male   White TRUE    Democrat    63 135000 Framin… Grafton      0.0191              1
##  4 Treated          11      11 Male   White FALSE   Democrat    45 300000 Framin… Grafton      0.0191              4
##  5 Control           8       5 Male   White TRUE    Democrat    55 135000 Framin… Grafton      0.0191              2
##  6 Treated          13      13 Female White FALSE   Democrat    37  87500 Framin… Grafton      0.0231              5
##  7 Control          13      13 Female White FALSE   Republi…    53  87500 Framin… Grafton      0.0304              5
##  8 Treated          10      11 Male   White FALSE   Democrat    36 135000 Framin… Grafton      0.0247              4
##  9 Control          12      12 Female White FALSE   Democrat    54 105000 Framin… Grafton      0.0247              4
## 10 Treated           9      10 Male   White FALSE   Republi…    42 135000 Framin… Grafton      0.0259              4
## # … with 105 more rows, and 1 more variable: ideology_end <int>

Let’s unpack this output:

A tibble is a specific kind of data frame. This particular data frame has 115 rows corresponding to different units, meaning people in this case.

The tibble also has 14 columns corresponding to variables which describe each unit or observation.

We see, by default, the top 10 rows and some of the columns. You can see more (or fewer) rows and columns by using the print() command:

print(trains, n = 15, width = 100)

## # A tibble: 115 x 14
##    treatment att_start att_end gender race  liberal party     age income line    station   hisp_perc
##    <fct>         <dbl>   <dbl> <chr>  <chr> <lgl>   <chr>   <int>  <dbl> <chr>   <chr>         <dbl>
##  1 Treated          11      11 Female White FALSE   Democr…    31 135000 Framin… Grafton      0.0264
##  2 Treated           9      10 Female White FALSE   Republ…    34 105000 Framin… Southbor…    0.0154
##  3 Treated           3       5 Male   White TRUE    Democr…    63 135000 Framin… Grafton      0.0191
##  4 Treated          11      11 Male   White FALSE   Democr…    45 300000 Framin… Grafton      0.0191
##  5 Control           8       5 Male   White TRUE    Democr…    55 135000 Framin… Grafton      0.0191
##  6 Treated          13      13 Female White FALSE   Democr…    37  87500 Framin… Grafton      0.0231
##  7 Control          13      13 Female White FALSE   Republ…    53  87500 Framin… Grafton      0.0304
##  8 Treated          10      11 Male   White FALSE   Democr…    36 135000 Framin… Grafton      0.0247
##  9 Control          12      12 Female White FALSE   Democr…    54 105000 Framin… Grafton      0.0247
## 10 Treated           9      10 Male   White FALSE   Republ…    42 135000 Framin… Grafton      0.0259
## 11 Control          10       9 Female White FALSE   Democr…    33 105000 Framin… Grafton      0.0259
## 12 Treated          11       9 Male   White FALSE   Democr…    50 250000 Framin… Grafton      0.0259
## 13 Treated          13      13 Male   White FALSE   Republ…    24 105000 Framin… Grafton      0.0159
## 14 Control           6       7 Male   White TRUE    Democr…    40  62500 Framin… Grafton      0.0159
## 15 Control           8       8 Male   White TRUE    Democr…    53 300000 Framin… Southbor…    0.0392
## # … with 100 more rows, and 2 more variables: ideology_start <int>, ideology_end <int>
…
FIGURE 1.2: filter() reduces the rows in a tibble.

The filter() function works much like the “Filter” option in Microsoft Excel. It allows you to specify criteria about the values of a variable in your dataset and then selects only the rows that match that criteria.

trains %>% 
  filter(gender == "Male")

## # A tibble: 64 x 14
##    treatment att_start att_end gender race  liberal party      age income line    station   hisp_perc ideology_start
##    <fct>         <dbl>   <dbl> <chr>  <chr> <lgl>   <chr>    <int>  <dbl> <chr>   <chr>         <dbl>          <int>
##  1 Treated           3       5 Male   White TRUE    Democrat    63 135000 Framin… Grafton      0.0191              1
##  2 Treated          11      11 Male   White FALSE   Democrat    45 300000 Framin… Grafton      0.0191              4
##  3 Control           8       5 Male   White TRUE    Democrat    55 135000 Framin… Grafton      0.0191              2
##  4 Treated          10      11 Male   White FALSE   Democrat    36 135000 Framin… Grafton      0.0247              4
##  5 Treated           9      10 Male   White FALSE   Republi…    42 135000 Framin… Grafton      0.0259              4
##  6 Treated          11       9 Male   White FALSE   Democrat    50 250000 Framin… Grafton      0.0259              5
##  7 Treated          13      13 Male   White FALSE   Republi…    24 105000 Framin… Grafton      0.0159              4
##  8 Control           6       7 Male   White TRUE    Democrat    40  62500 Framin… Grafton      0.0159              1
##  9 Control           8       8 Male   White TRUE    Democrat    53 300000 Framin… Southbor…    0.0392              2
## 10 Treated          13      13 Male   Asian FALSE   Republi…    33 250000 Framin… Southbor…    0.0446              4
## # … with 54 more rows, and 1 more variable: ideology_end <int>
…
However, if you only need two of these variables, say gender and treatment. You can select() just these two:

trains %>% 
  select(gender, treatment)

## # A tibble: 115 x 2
##    gender treatment
##    <chr>  <fct>    
##  1 Female Treated  
##  2 Female Treated  
##  3 Male   Treated  
##  4 Male   Treated  
##  5 Male   Control  
##  6 Female Treated  
##  7 Female Control  
##  8 Male   Treated  
##  9 Female Control  
## 10 Male   Treated  
## # … with 105 more rows

You can drop, or “de-select,” certain variables by using the minus (-) sign:

trains %>% 
  select(-gender, -liberal, -party, -age)

## # A tibble: 115 x 10
##    treatment att_start att_end race  income line       station      hisp_perc ideology_start ideology_end
##    <fct>         <dbl>   <dbl> <chr>  <dbl> <chr>      <chr>            <dbl>          <int>        <int>
##  1 Treated          11      11 White 135000 Framingham Grafton         0.0264              3            3
##  2 Treated           9      10 White 105000 Framingham Southborough    0.0154              4            4
##  3 Treated           3       5 White 135000 Framingham Grafton         0.0191              1            2
##  4 Treated          11      11 White 300000 Framingham Grafton         0.0191              4            4
##  5 Control           8       5 White 135000 Framingham Grafton         0.0191              2            2
##  6 Treated          13      13 White  87500 Framingham Grafton         0.0231              5            5
##  7 Control          13      13 White  87500 Framingham Grafton         0.0304              5            5
##  8 Treated          10      11 White 135000 Framingham Grafton         0.0247              4            4
##  9 Control          12      12 White 105000 Framingham Grafton         0.0247              4            3
## 10 Treated           9      10 White 135000 Framingham Grafton         0.0259              4            4
## # … with 105 more rows

You can specify a range of columns by using the : operator.

trains %>% 
  select(gender:age)

## # A tibble: 115 x 5
##    gender race  liberal party        age
##    <chr>  <chr> <lgl>   <chr>      <int>
##  1 Female White FALSE   Democrat      31
##  2 Female White FALSE   Republican    34
##  3 Male   White TRUE    Democrat      63
##  4 Male   White FALSE   Democrat      45
##  5 Male   White TRUE    Democrat      55
##  6 Female White FALSE   Democrat      37
##  7 Female White FALSE   Republican    53
##  8 Male   White FALSE   Democrat      36
##  9 Female White FALSE   Democrat      54
## 10 Male   White FALSE   Republican    42
## # … with 105 more rows

This will select() all columns between the two specified variables.
The select() function can also be used to rearrange columns when used with the everything() helper function. We can put the treatment and gender variables first with:

trains %>% 
  select(treatment, gender, everything())

## # A tibble: 115 x 14
##    treatment gender att_start att_end race  liberal party      age income line    station   hisp_perc ideology_start
##    <fct>     <chr>      <dbl>   <dbl> <chr> <lgl>   <chr>    <int>  <dbl> <chr>   <chr>         <dbl>          <int>
##  1 Treated   Female        11      11 White FALSE   Democrat    31 135000 Framin… Grafton      0.0264              3
##  2 Treated   Female         9      10 White FALSE   Republi…    34 105000 Framin… Southbor…    0.0154              4
##  3 Treated   Male           3       5 White TRUE    Democrat    63 135000 Framin… Grafton      0.0191              1
##  4 Treated   Male          11      11 White FALSE   Democrat    45 300000 Framin… Grafton      0.0191              4
##  5 Control   Male           8       5 White TRUE    Democrat    55 135000 Framin… Grafton      0.0191              2
##  6 Treated   Female        13      13 White FALSE   Democrat    37  87500 Framin… Grafton      0.0231              5
##  7 Control   Female        13      13 White FALSE   Republi…    53  87500 Framin… Grafton      0.0304              5
##  8 Treated   Male          10      11 White FALSE   Democrat    36 135000 Framin… Grafton      0.0247              4
##  9 Control   Female        12      12 White FALSE   Democrat    54 105000 Framin… Grafton      0.0247              4
## 10 Treated   Male           9      10 White FALSE   Republi…    42 135000 Framin… Grafton      0.0259              4
## # … with 105 more rows, and 1 more variable: ideology_end <int>

The helper functions starts_with(), ends_with(), and contains() can be used to select variables/columns that match those conditions. Examples:

trains %>% 
  select(starts_with("a"))

## # A tibble: 115 x 3
##    att_start att_end   age
##        <dbl>   <dbl> <int>
##  1        11      11    31
##  2         9      10    34
##  3         3       5    63
##  4        11      11    45
##  5         8       5    55
##  6        13      13    37
##  7        13      13    53
##  8        10      11    36
##  9        12      12    54
## 10         9      10    42
## # … with 105 more rows
…
trains %>% 
  slice(2:5) %>% 
  pull(age)

## [1] 34 63 45 55

1.4.6 arrange()

arrange() allows us to sort/reorder a tibble’s rows according to the values of a specific variable. Unlike filter() or select(), arrange() does not remove any rows or columns from the tibble. Example:

trains %>% 
  select(treatment, gender, age) %>% 
  arrange(age)

## # A tibble: 115 x 3
##    treatment gender   age
##    <fct>     <chr>  <int>
##  1 Treated   Female    20
##  2 Control   Male      20
##  3 Control   Male      21
##  4 Control   Female    21
##  5 Control   Female    21
##  6 Control   Male      22
##  7 Control   Female    22
##  8 Treated   Male      22
##  9 Treated   Male      23
## 10 Control   Male      23
## # … with 105 more rows

arrange() always returns rows sorted in ascending order by default. To switch the ordering to descending order instead, use the desc() function:

trains %>% 
  select(treatment, gender, age) %>% 
  arrange(desc(age))

## # A tibble: 115 x 3
##    treatment gender   age
##    <fct>     <chr>  <int>
##  1 Control   Female    68
##  2 Control   Male      68
##  3 Control   Male      67
##  4 Treated   Male      63
##  5 Control   Male      63
##  6 Control   Male      61
##  7 Control   Female    60
##  8 Treated   Male      60
##  9 Control   Male      60
## 10 Control   Female    60
## # … with 105 more rows
…
FIGURE 1.4: `mutate() adds a column to a tibble.

mutate() takes existing columns and creates a new column. Recall that the income variable in the trains tibble is in dollars. Let’s use mutate() to create a new variable which is income in thousands of dollars. (We use select() at the start of the pipe so that it is easier to see the new and old variables at the same time.)

trains %>% 
  select(gender, income) %>% 
  mutate(income_in_thousands = income / 1000)

## # A tibble: 115 x 3
##    gender income income_in_thousands
##    <chr>   <dbl>               <dbl>
##  1 Female 135000               135  
##  2 Female 105000               105  
##  3 Male   135000               135  
##  4 Male   300000               300  
##  5 Male   135000               135  
##  6 Female  87500                87.5
##  7 Female  87500                87.5
##  8 Male   135000               135  
##  9 Female 105000               105  
## 10 Male   135000               135  
## # … with 105 more rows
…
Whenever we create a new tibble, or a new variable within a tibble, we face a dilemma: Should we overwrite the existing tibble/variable or create a new one? There is no right answer.

For example, instead of overwriting trains in the code above, we could have created a new tibble trains_new. Similarly, instead of creating a new variable, income_in_thousands, we could have overwritten the current value of income. Use your best judgment and be careful.

1.4.7.1 if_else()

if_else() is often used within calls to mutate(). It has three arguments. The first argument test should be a logical vector. The result will contain the value of the second argument, yes, when test is TRUE, and the value of the third argument, no, when it is FALSE.

Imagine that we want to create a new variable old, which is TRUE when age > 50 and FALSE otherwise.

trains %>% 
  select(age) %>% 
  mutate(old = ifelse(age > 50, TRUE, FALSE))

## # A tibble: 115 x 2
##      age old  
##    <int> <lgl>
##  1    31 FALSE
##  2    34 FALSE
##  3    63 TRUE 
##  4    45 FALSE
##  5    55 TRUE 
##  6    37 FALSE
##  7    53 TRUE 
##  8    36 FALSE
##  9    54 TRUE 
## 10    42 FALSE
## # … with 105 more rows
…
trains %>% 
  summarize(mean = mean(age))

## # A tibble: 1 x 1
##    mean
##   <dbl>
## 1  42.4

What if we want the mean age for each gender? Consider:

trains %>% 
  group_by(gender)

## # A tibble: 115 x 15
## # Groups:   gender [2]
##    treatment att_start att_end gender race  liberal party      age income line    station   hisp_perc ideology_start
##    <fct>         <dbl>   <dbl> <chr>  <chr> <lgl>   <chr>    <int>  <dbl> <chr>   <chr>         <dbl>          <int>
##  1 Treated          11      11 Female White FALSE   Democrat    31 135000 Framin… Grafton      0.0264              3
##  2 Treated           9      10 Female White FALSE   Republi…    34 105000 Framin… Southbor…    0.0154              4
##  3 Treated           3       5 Male   White TRUE    Democrat    63 135000 Framin… Grafton      0.0191              1
##  4 Treated          11      11 Male   White FALSE   Democrat    45 300000 Framin… Grafton      0.0191              4
##  5 Control           8       5 Male   White TRUE    Democrat    55 135000 Framin… Grafton      0.0191              2
##  6 Treated          13      13 Female White FALSE   Democrat    37  87500 Framin… Grafton      0.0231              5
##  7 Control          13      13 Female White FALSE   Republi…    53  87500 Framin… Grafton      0.0304              5
##  8 Treated          10      11 Male   White FALSE   Democrat    36 135000 Framin… Grafton      0.0247              4
##  9 Control          12      12 Female White FALSE   Democrat    54 105000 Framin… Grafton      0.0247              4
## 10 Treated           9      10 Male   White FALSE   Republi…    42 135000 Framin… Grafton      0.0259              4
## # … with 105 more rows, and 2 more variables: ideology_end <int>, income_in_thousands <dbl>
…
