Chapter 1 Visualization | Preceptor’s Primer for Bayesian Data Science
…
1.1.5 Examining trains

Let’s put everything we’ve learned so far into practice and start exploring some real data! Data comes to us in a variety of formats, from pictures to text to numbers. Throughout this book, we’ll focus on datasets that are saved in “spreadsheet”-type format. This is probably the most common way data are collected and saved in many fields. These “spreadsheet”-type datasets are called data frames in R. We’ll focus on working with data saved as data frames throughout this book. Again, “tibble” is the more modern term for “data frame,” but we will use both interchangeably.

See ["Causal effect of intergroup contact on attitudes," by Ryan D. Enos, Proceedings of the National Academy of Sciences, Mar 2014, 111 (10)](https://scholar.harvard.edu/files/renos/files/enostrains.pdf) for background and details on the `trains` dataset.

We’ll begin by exploring the trains data frame in the PPBDS.data package and get an idea of its structure. This dataset includes data for attitudes toward immigration-related policies, both before and after an experiment which randomly exposed commuters to Spanish-speakers on a Boston train platform. Individuals with a treatment value of “Treated” were exposed to two Spanish-speakers on their regular commute. “Control” individuals were not.

Run the following code in your console, either by typing it or by cutting-and-pasting it. It displays the contents of the trains data frame in your console. Note that depending on the size of your monitor, the output may vary slightly.

library(PPBDS.data)
trains

## # A tibble: 115 x 8
##    gender liberal party        age income att_start treatment att_end
##    <chr>  <lgl>   <chr>      <dbl>  <dbl>     <dbl> <fct>       <dbl>
##  1 Female FALSE   Democrat      31 135000        11 Treated        11
##  2 Female FALSE   Republican    34 105000         9 Treated        10
##  3 Male   TRUE    Democrat      63 135000         3 Treated         5
##  4 Male   FALSE   Democrat      45 300000        11 Treated        11
##  5 Male   TRUE    Democrat      55 135000         8 Control         5
##  6 Female FALSE   Democrat      37  87500        13 Treated        13
##  7 Female FALSE   Republican    53  87500        13 Control        13
##  8 Male   FALSE   Democrat      36 135000        10 Treated        11
##  9 Female FALSE   Democrat      54 105000        12 Control        12
## 10 Male   FALSE   Republican    42 135000         9 Treated        10
## # … with 105 more rows

Let’s unpack this output:

A tibble: 115 x 8: A tibble is a specific kind of data frame in R. This particular data frame has 115 rows corresponding to different observations. Here, each observation is a person. The tibble also has 8 columns corresponding to 8 variables describing each observation.

gender, liberal, party, age, income, att_start, treatment, and att_end are the different variables of this dataset.

We see, dy default, the top 10 rows, but these ten are followed ... with 105 more rows, indicating to us that 105 more rows of data could not fit in this screen. R is only showing the first 10 rows, since that is all that you probably want to see at first. You can see more (or fewer) rows with the print() command, i.e.,

print(trains, n = 15)

## # A tibble: 115 x 8
##    gender liberal party        age income att_start treatment att_end
##    <chr>  <lgl>   <chr>      <dbl>  <dbl>     <dbl> <fct>       <dbl>
##  1 Female FALSE   Democrat      31 135000        11 Treated        11
##  2 Female FALSE   Republican    34 105000         9 Treated        10
##  3 Male   TRUE    Democrat      63 135000         3 Treated         5
##  4 Male   FALSE   Democrat      45 300000        11 Treated        11
##  5 Male   TRUE    Democrat      55 135000         8 Control         5
##  6 Female FALSE   Democrat      37  87500        13 Treated        13
##  7 Female FALSE   Republican    53  87500        13 Control        13
##  8 Male   FALSE   Democrat      36 135000        10 Treated        11
##  9 Female FALSE   Democrat      54 105000        12 Control        12
## 10 Male   FALSE   Republican    42 135000         9 Treated        10
## 11 Female FALSE   Democrat      33 105000        10 Control         9
## 12 Male   FALSE   Democrat      50 250000        11 Treated         9
## 13 Male   FALSE   Republican    24 105000        13 Treated        13
## 14 Male   TRUE    Democrat      40  62500         6 Control         7
## 15 Male   TRUE    Democrat      53 300000         8 Control         8
## # … with 100 more rows
…
Figure 1.1: Artwork by Allison Horst

These three components are specified in the ggplot() function included in the ggplot2 package. For the purposes of this book, we’ll always provide the ggplot() function with the following arguments (i.e., inputs) at a minimum:

The data frame where the variables exist: the data argument.

The mapping of the variables to aesthetic attributes: the mapping argument which specifies the aesthetic attributes involved.

After we’ve specified these components, we then add layers to the plot using the + sign. The most essential layer to add to a plot is the layer that specifies which type of geometric object we want the plot to involve: points, lines, bars, and others. Other layers we can add to a plot include the plot title, axes labels, visual themes for the plots, and facets.

In February 2006, a Swedish physician and data advocate named Hans Rosling gave a TED talk titled “The best stats you’ve ever seen” where he presented global economic, health, and development data from the website gapminder.org. For example, for data on 142 countries in 2007, let’s consider only a few countries in the following table as a peak into the data.

## # A tibble: 142 x 5
##   Country     Continent `Life Expectancy` Population `GDP per Capita`
##   <fct>       <fct>                 <dbl>      <int>            <dbl>
## 1 Afghanistan Asia                   43.8   31889923             975.
## 2 Albania     Europe                 76.4    3600523            5937.
## 3 Algeria     Africa                 72.3   33333216            6223.
## # … with 139 more rows
…
## [1] 533 542 544 554

1.4.5 arrange() rows

One of the most commonly performed data wrangling tasks is to sort a data frame’s rows in the alphanumeric order of one of the variables. Unlike filter() or select(), arrange() does not remove any rows or columns from the data frame. Instead, the dplyr package’s arrange() function allows us to sort/reorder a data frame’s rows according to the values of the specified variable.

Suppose we are interested in determining the flight that covers that most distance from all domestic flights departing from New York City in 2013:

First, let’s select() some pertinent variables to make the data more easy to read.

flights_dist <- flights %>% 
  select(origin, dest, air_time, distance)
flights_dist

## # A tibble: 336,776 x 4
##    origin dest  air_time distance
##    <chr>  <chr>    <dbl>    <dbl>
##  1 EWR    IAH        227     1400
##  2 LGA    IAH        227     1416
##  3 JFK    MIA        160     1089
##  4 JFK    BQN        183     1576
##  5 LGA    ATL        116      762
##  6 EWR    ORD        150      719
##  7 EWR    FLL        158     1065
##  8 LGA    IAD         53      229
##  9 JFK    MCO        140      944
## 10 LGA    ORD        138      733
## # … with 336,766 more rows

The order of this data appears is maintained from the original flights data set. Say instead we would like to see the same data, but sorted for the distance of each flight (from the farthest to the shortest distance).

flights_dist %>% 
  arrange(distance)

## # A tibble: 336,776 x 4
##    origin dest  air_time distance
##    <chr>  <chr>    <dbl>    <dbl>
##  1 EWR    LGA         NA       17
##  2 EWR    PHL         30       80
##  3 EWR    PHL         30       80
##  4 EWR    PHL         28       80
##  5 EWR    PHL         32       80
##  6 EWR    PHL         29       80
##  7 EWR    PHL         22       80
##  8 EWR    PHL         25       80
##  9 EWR    PHL         30       80
## 10 EWR    PHL         27       80
## # … with 336,766 more rows

This is, however, the opposite of what we want. The rows are sorted with the flights covering the least distance displayed first. This is because arrange() always returns rows sorted in ascending order by default. To switch the ordering to be in “descending” order instead, we use the desc() function like so:

flights_dist %>% 
  arrange(desc(distance))

## # A tibble: 336,776 x 4
##    origin dest  air_time distance
##    <chr>  <chr>    <dbl>    <dbl>
##  1 JFK    HNL        659     4983
##  2 JFK    HNL        638     4983
##  3 JFK    HNL        616     4983
##  4 JFK    HNL        639     4983
##  5 JFK    HNL        635     4983
##  6 JFK    HNL        611     4983
##  7 JFK    HNL        612     4983
##  8 JFK    HNL        645     4983
##  9 JFK    HNL        640     4983
## 10 JFK    HNL        633     4983
## # … with 336,766 more rows

Let’s try this one more time with a character variable. What happens when we try to sort by the destination (dest) variable?

flights_dist %>%
  arrange(dest)

## # A tibble: 336,776 x 4
##    origin dest  air_time distance
##    <chr>  <chr>    <dbl>    <dbl>
##  1 JFK    ABQ        230     1826
##  2 JFK    ABQ        238     1826
##  3 JFK    ABQ        251     1826
##  4 JFK    ABQ        257     1826
##  5 JFK    ABQ        242     1826
##  6 JFK    ABQ        240     1826
##  7 JFK    ABQ        246     1826
##  8 JFK    ABQ        233     1826
##  9 JFK    ABQ        236     1826
## 10 JFK    ABQ        245     1826
## # … with 336,766 more rows
…
flights <- flights %>% 
  mutate(gain = dep_delay - arr_delay,
         hours = air_time / 60,
         gain_per_hour = gain / hours)

1.4.6.1 ifelse()

ifelse() has three arguments. The first argument test should be a logical vector. The result will contain the value of the second argument, yes, when test is TRUE, and the value of the third argument, no, when it is FALSE. Imagine that we want to create a new variable E, which is TRUE when the color of the diamond is “E” and FALSE otherwise.

diamonds %>% 
  select(carat, color, price) %>% 
  mutate(E = ifelse(color == "E", TRUE, FALSE))

## # A tibble: 53,940 x 4
##    carat color price E    
##    <dbl> <ord> <int> <lgl>
##  1 0.23  E       326 TRUE 
##  2 0.21  E       326 TRUE 
##  3 0.23  E       327 TRUE 
##  4 0.290 I       334 FALSE
##  5 0.31  J       335 FALSE
##  6 0.24  J       336 FALSE
##  7 0.24  I       336 FALSE
##  8 0.26  H       337 FALSE
##  9 0.22  E       337 TRUE 
## 10 0.23  H       338 FALSE
## # … with 53,930 more rows
…
This code does the same thing as the first version, but does not issue a warning, since we have made an affirmative decision to drop any grouping variables. See ?summarize for a discussion of other possible values for .groups.

This code is identical to the previous code that created summary_temp, but with an extra group_by(month) added before the summarize(). Grouping the weather dataset by month and then applying the summarize() functions yields a data frame that displays the mean and standard deviation temperature split by the 12 months of the year.

It is important to note that the group_by() function doesn’t change data frames by itself. Rather it changes the meta-data, or data about the data, specifically the grouping structure. It is only after we apply the summarize() function that the data frame changes.

Run this code (do not forget to load its package nycflights13 in your console if you have not already):

flights

## # A tibble: 336,776 x 22
##     year month   day dep_time sched_dep_time dep_delay arr_time sched_arr_time
##    <int> <int> <int>    <int>          <int>     <dbl>    <int>          <int>
##  1  2013     1     1      517            515         2      830            819
##  2  2013     1     1      533            529         4      850            830
##  3  2013     1     1      542            540         2      923            850
##  4  2013     1     1      544            545        -1     1004           1022
##  5  2013     1     1      554            600        -6      812            837
##  6  2013     1     1      554            558        -4      740            728
##  7  2013     1     1      555            600        -5      913            854
##  8  2013     1     1      557            600        -3      709            723
##  9  2013     1     1      557            600        -3      838            846
## 10  2013     1     1      558            600        -2      753            745
## # … with 336,766 more rows, and 14 more variables: arr_delay <dbl>,
## #   carrier <chr>, flight <int>, tailnum <chr>, origin <chr>, dest <chr>,
## #   air_time <dbl>, distance <dbl>, hour <dbl>, minute <dbl>, time_hour <dttm>,
## #   gain <dbl>, hours <dbl>, gain_per_hour <dbl>

Observe that the first line of the output reads # A tibble: 336,776 x 20. This is an example of meta-data, in this case the number of observations/rows and variables/columns in flights. The actual data itself are the subsequent table of values. Now let’s pipe the flights data frame into group_by(origin):

flights %>% 
  group_by(origin)

## # A tibble: 336,776 x 22
## # Groups:   origin [3]
##     year month   day dep_time sched_dep_time dep_delay arr_time sched_arr_time
##    <int> <int> <int>    <int>          <int>     <dbl>    <int>          <int>
##  1  2013     1     1      517            515         2      830            819
##  2  2013     1     1      533            529         4      850            830
##  3  2013     1     1      542            540         2      923            850
##  4  2013     1     1      544            545        -1     1004           1022
##  5  2013     1     1      554            600        -6      812            837
##  6  2013     1     1      554            558        -4      740            728
##  7  2013     1     1      555            600        -5      913            854
##  8  2013     1     1      557            600        -3      709            723
##  9  2013     1     1      557            600        -3      838            846
## 10  2013     1     1      558            600        -2      753            745
## # … with 336,766 more rows, and 14 more variables: arr_delay <dbl>,
## #   carrier <chr>, flight <int>, tailnum <chr>, origin <chr>, dest <chr>,
## #   air_time <dbl>, distance <dbl>, hour <dbl>, minute <dbl>, time_hour <dttm>,
## #   gain <dbl>, hours <dbl>, gain_per_hour <dbl>
…
We see that Newark ("EWR") had the most flights departing in 2013 followed by "JFK" and lastly by LaGuardia ("LGA"). Note there is a subtle but important difference between sum() and n(); while sum() returns the sum of a numerical variable, n() returns a count of the number of rows/observations.

If you would like to remove this grouping structure meta-data, we can pipe the resulting data frame into the ungroup() function:

flights %>% 
  group_by(origin) %>% 
  ungroup()

## # A tibble: 336,776 x 22
##     year month   day dep_time sched_dep_time dep_delay arr_time sched_arr_time
##    <int> <int> <int>    <int>          <int>     <dbl>    <int>          <int>
##  1  2013     1     1      517            515         2      830            819
##  2  2013     1     1      533            529         4      850            830
##  3  2013     1     1      542            540         2      923            850
##  4  2013     1     1      544            545        -1     1004           1022
##  5  2013     1     1      554            600        -6      812            837
##  6  2013     1     1      554            558        -4      740            728
##  7  2013     1     1      555            600        -5      913            854
##  8  2013     1     1      557            600        -3      709            723
##  9  2013     1     1      557            600        -3      838            846
## 10  2013     1     1      558            600        -2      753            745
## # … with 336,766 more rows, and 14 more variables: arr_delay <dbl>,
## #   carrier <chr>, flight <int>, tailnum <chr>, origin <chr>, dest <chr>,
## #   air_time <dbl>, distance <dbl>, hour <dbl>, minute <dbl>, time_hour <dttm>,
## #   gain <dbl>, hours <dbl>, gain_per_hour <dbl>

Observe how the # Groups: origin [3] meta-data is no longer present.

1.4.9.1 Grouping by more than one variable

You are not limited to grouping by one variable. Say you want to know the number of flights leaving each of the three New York City airports for each month. We can also group by a second variable month using group_by(origin, month):

flights %>% 
  group_by(origin, month) %>% 
  summarize(count = n(),
            .groups = "drop")

## # A tibble: 36 x 3
##    origin month count
##    <chr>  <int> <int>
##  1 EWR        1  9893
##  2 EWR        2  9107
##  3 EWR        3 10420
##  4 EWR        4 10531
##  5 EWR        5 10592
##  6 EWR        6 10175
##  7 EWR        7 10475
##  8 EWR        8 10359
##  9 EWR        9  9550
## 10 EWR       10 10104
## # … with 26 more rows
…
