Chapter 3 Data | Preceptor’s Primer for Bayesian Data Science
…
aboriginal_lang_data <- collect(aboriginal_lang_db)
aboriginal_lang_data

## # A tibble: 67 x 6
##    category     language      mother_tongue most_at_home most_at_work lang_known
##    <chr>        <chr>                 <dbl>        <dbl>        <dbl>      <dbl>
##  1 Aboriginal … Aboriginal l…           590          235           30        665
##  2 Aboriginal … Algonquian l…            45           10            0        120
##  3 Aboriginal … Algonquin              1260          370           40       2480
##  4 Aboriginal … Athabaskan l…            50           10            0         85
##  5 Aboriginal … Atikamekw              6150         5465         1100       6645
##  6 Aboriginal … Babine (Wets…           110           20           10        210
##  7 Aboriginal … Beaver                  190           50            0        340
##  8 Aboriginal … Blackfoot              2815         1110           85       5645
##  9 Aboriginal … Carrier                1025          250           15       2100
## 10 Aboriginal … Cayuga                   45           10           10        125
## # … with 57 more rows
…
