Chapter 10 Five Parameters | Preceptor’s Primer for Bayesian Data Science
…
If, instead, we interpret the question as asking for a prediction for a small number of individuals, then we need to use posterior_predict().

Use posterior_predict() to create draws from the posterior probability distribution for our prediction for these cases. posterior_predict() takes two arguments: the model for which the simulations should be run, and a tibble indicating the covariate values for the individual(s) we want to predict. In this case, we are using the fit_4 model and the tibble is the one we just created above. In other words, the inputs for posterior_predict() and posterior_epred() are identical.

pp <- posterior_predict(object = fit_4, 
                        newdata = newobs) %>%
  as_tibble() %>% 
  mutate_all(as.numeric) %>% 
  rename("Male" = `1`,
         "Female" = `2`)

pp  

## # A tibble: 4,000 x 2
##     Male  Female
##    <dbl>   <dbl>
##  1  60.5  -2.92 
##  2  45.1   4.04 
##  3  60.8  12.3  
##  4  75.6   0.535
##  5  83.5   5.88 
##  6  54.2 -19.7  
##  7  64.5 -21.5  
##  8  55.8 -10.2  
##  9  87.2  -5.71 
## 10  81.0   6.50 
## # … with 3,990 more rows
…
