Chapter 9 Four Parameters | Preceptor’s Primer for Bayesian Data Science
…
Because att_end takes on 13 unique values, the model makes 13 unique predictions. Some of those predictions are perfect! But others are very wrong. The red line shows the points where our predictions match the truth. Note the individual with a predicted att_end of around 9 but with an actual value of 15. That is a big miss!

Rather than looking at individual cases, we need to look at the errors for all the predictions. Fortunately, a prediction error is the same thing as a residual, which is easy enough to calculate.

trains %>% 
  select(att_end, att_start, liberal) %>% 
  mutate(pred_lib = fitted(fit_liberal)) %>% 
  mutate(resid_lib = fitted(fit_liberal) - att_end) %>% 
  mutate(pred_as = fitted(fit_att_start)) %>% 
  mutate(resid_as = fitted(fit_att_start) - att_end)

## # A tibble: 115 x 7
##    att_end att_start liberal pred_lib resid_lib pred_as resid_as
##      <dbl>     <dbl> <lgl>      <dbl>     <dbl>   <dbl>    <dbl>
##  1      11        11 FALSE      10.0    -0.974    10.6    -0.399
##  2      10         9 FALSE      10.0     0.0259    8.97   -1.03 
##  3       5         3 TRUE        8.02    3.02      4.08   -0.916
##  4      11        11 FALSE      10.0    -0.974    10.6    -0.399
##  5       5         8 TRUE        8.02    3.02      8.16    3.16 
##  6      13        13 FALSE      10.0    -2.97     12.2    -0.769
##  7      13        13 FALSE      10.0    -2.97     12.2    -0.769
##  8      11        10 FALSE      10.0    -0.974     9.79   -1.21 
##  9      12        12 FALSE      10.0    -1.97     11.4    -0.584
## 10      10         9 FALSE      10.0     0.0259    8.97   -1.03 
## # … with 105 more rows
…
