Chapter 3 Functions | Preceptor’s Primer for Bayesian Big Data Science
…
Note that the output is a 2 x 1 dataframe with double observations, not one singular list.

Wrapping a function with list() is often how we will go about creating list columns. Let’s practice with the kenya dataset. How could we add a column to the dataset that included the quantiles of the poverty variable?

First, we load the necessary primer.data library, select the relevant variables, and group by block. We are grouping because we are curious as to how the poverty rates look when aggregated by block, rather than as individual observations.

library(primer.data)
kenya %>%
  select(block, poverty) %>%
  group_by(block)

## # A tibble: 1,672 x 2
## # Groups:   block [279]
##    block    poverty
##    <chr>      <dbl>
##  1 KWALE/42   0.247
##  2 KWALE/35   0.329
##  3 KWALE/40   0.263
##  4 KWALE/18   0.429
##  5 KWALE/12   0.341
##  6 KWALE/42   0.204
##  7 KWALE/40   0.272
##  8 KWALE/12   0.316
##  9 KWALE/30   0.396
## 10 KWALE/16   0.398
## # … with 1,662 more rows

Next, we will create a list-column by wrapping quantile() with list(). quantile() naturally produces a numeric vector of the quantiles of poverty, and wrapping with list() will capture this numeric vector as a list.

library(primer.data)
kenya %>%
  select(block, poverty) %>%
  group_by(block) %>%
  mutate(poverty_quantile = list(quantile(poverty)))

## # A tibble: 1,672 x 3
## # Groups:   block [279]
##    block    poverty poverty_quantile
##    <chr>      <dbl> <list>          
##  1 KWALE/42   0.247 <dbl [5]>       
##  2 KWALE/35   0.329 <dbl [5]>       
##  3 KWALE/40   0.263 <dbl [5]>       
##  4 KWALE/18   0.429 <dbl [5]>       
##  5 KWALE/12   0.341 <dbl [5]>       
##  6 KWALE/42   0.204 <dbl [5]>       
##  7 KWALE/40   0.272 <dbl [5]>       
##  8 KWALE/12   0.316 <dbl [5]>       
##  9 KWALE/30   0.396 <dbl [5]>       
## 10 KWALE/16   0.398 <dbl [5]>       
## # … with 1,662 more rows

Or let’s say that we wanted 1) to subset the dataset to the those with treatment == "control", 2) group by block, and 3) get a summary() of the distance variable by continent:

kenya %>%
  select(treatment, block, distance) %>%
  filter(treatment == "control") %>%
  group_by(block) %>%
  summarize(dist_summary = list(summary(distance)))

## # A tibble: 278 x 2
##    block      dist_summary
##    <chr>      <list>      
##  1 BUNGOMA/1  <table [6]> 
##  2 BUNGOMA/10 <table [6]> 
##  3 BUNGOMA/11 <table [6]> 
##  4 BUNGOMA/12 <table [6]> 
##  5 BUNGOMA/13 <table [6]> 
##  6 BUNGOMA/14 <table [6]> 
##  7 BUNGOMA/15 <table [6]> 
##  8 BUNGOMA/16 <table [6]> 
##  9 BUNGOMA/17 <table [6]> 
## 10 BUNGOMA/18 <table [6]> 
## # … with 268 more rows
…
First, let’s wrangle the data so each observation is a day rather than an hour. We will do so by selecting for the necessary variables and grouping by origin, year, month, and day.

weather %>%
  select(origin, year, month, day, temp) %>%
  group_by(origin, year, month, day)

Next, we’ll create a list column temps_F that consists of all the temperatures recorded that day at a particular origin. Note that the temperatures are Fahrenheit by default.

weather %>%
  select(origin, year, month, day, temp) %>%
  group_by(origin, year, month, day) %>%
  summarize(temps_F = list(c(temp)))

## # A tibble: 1,092 x 5
## # Groups:   origin, year, month [36]
##    origin  year month   day temps_F   
##    <chr>  <int> <int> <int> <list>    
##  1 EWR     2013     1     1 <dbl [22]>
##  2 EWR     2013     1     2 <dbl [24]>
##  3 EWR     2013     1     3 <dbl [24]>
##  4 EWR     2013     1     4 <dbl [24]>
##  5 EWR     2013     1     5 <dbl [24]>
##  6 EWR     2013     1     6 <dbl [24]>
##  7 EWR     2013     1     7 <dbl [24]>
##  8 EWR     2013     1     8 <dbl [24]>
##  9 EWR     2013     1     9 <dbl [24]>
## 10 EWR     2013     1    10 <dbl [24]>
## # … with 1,082 more rows

Now that we have a list-column, we can use it as the input to map(), outputting another list-column. Let’s say we wanted a new list-column, temps_C, which records the temperature in Celsius.

The formula to convert from Fahrenheit to Celsius is \(\frac{(F-32)*5}{9}\). Let’s “eyeball” the results using str().

weather %>%
  select(origin, year, month, day, temp) %>%
  group_by(origin, year, month, day) %>%
  summarize(temps_F = list(c(temp))) %>%
  mutate(temps_C = map(temps_F, ~ (. - 32) * 5/9))

## # A tibble: 1,092 x 6
## # Groups:   origin, year, month [36]
##    origin  year month   day temps_F    temps_C   
##    <chr>  <int> <int> <int> <list>     <list>    
##  1 EWR     2013     1     1 <dbl [22]> <dbl [22]>
##  2 EWR     2013     1     2 <dbl [24]> <dbl [24]>
##  3 EWR     2013     1     3 <dbl [24]> <dbl [24]>
##  4 EWR     2013     1     4 <dbl [24]> <dbl [24]>
##  5 EWR     2013     1     5 <dbl [24]> <dbl [24]>
##  6 EWR     2013     1     6 <dbl [24]> <dbl [24]>
##  7 EWR     2013     1     7 <dbl [24]> <dbl [24]>
##  8 EWR     2013     1     8 <dbl [24]> <dbl [24]>
##  9 EWR     2013     1     9 <dbl [24]> <dbl [24]>
## 10 EWR     2013     1    10 <dbl [24]> <dbl [24]>
## # … with 1,082 more rows
…
