Maps | Preceptor’s Primer for Bayesian Data Science
…
races <- get_acs(geography = "tract",
                 state = continental,
                 variables = "B02001_008", 
                 year = 2018,
                 summary_var = "B02001_001",
                 geometry = TRUE)

races

## Simple feature collection with 72359 features and 7 fields (with 196 geometries empty)
## Geometry type: MULTIPOLYGON
## Dimension:     XY
## Bounding box:  xmin: -120 ymin: 25 xmax: -67 ymax: 49
## Geodetic CRS:  NAD83
## # A tibble: 72,359 x 8
##    GEOID    NAME                 variable estimate   moe summary_est summary_moe
##    <chr>    <chr>                <chr>       <dbl> <dbl>       <dbl>       <dbl>
##  1 0111703… Census Tract 303.17… B02001_…      223   117        4100         301
##  2 0111901… Census Tract 115, S… B02001_…       11    20        4380         441
##  3 0112101… Census Tract 109, T… B02001_…       55    69        3102         389
##  4 0112501… Census Tract 101.02… B02001_…       16    27        3026         348
##  5 0108900… Census Tract 7.01, … B02001_…       90    65        2617         389
##  6 0108900… Census Tract 22, Ma… B02001_…       76    48        1921         197
##  7 0108900… Census Tract 30, Ma… B02001_…       27    35        2589         345
##  8 0109503… Census Tract 309.02… B02001_…      122    86        4504         379
##  9 0109700… Census Tract 4.01, … B02001_…        0    12        1068         177
## 10 0109700… Census Tract 4.02, … B02001_…        0    12         833         113
## # … with 72,349 more rows, and 1 more variable: geometry <MULTIPOLYGON [°]>
…
