Chapter 11 N Parameters | Preceptor’s Primer for Bayesian Data Science
…
That is a lot to take in! Examining and comparing two parameters — the average attitude toward immigration of the treated and control, for example — is easy. Doing the same for 50 parameters is hard. The broom and broom.mixed packages were created to make this problem easier to manage, for all sorts of statistical models. For rstanarm models, we need the latter:

library(broom.mixed)

tidy() is the key function.

fit_1_params <- tidy(fit_1)

fit_1_params

## # A tibble: 50 x 3
##    term             estimate std.error
##    <chr>               <dbl>     <dbl>
##  1 stateAlabama         24.0      3.07
##  2 stateAlaska          27.4      3.52
##  3 stateArizona         31.2      2.27
##  4 stateArkansas        31.7      2.43
##  5 stateCalifornia      26.3      2.85
##  6 stateColorado        32.7      2.71
##  7 stateConnecticut     27.1      3.06
##  8 stateDelaware        34.5      2.97
##  9 stateFlorida         22.5      3.53
## 10 stateGeorgia         32.8      3.69
## # … with 40 more rows
…
The (Intercept) here is the intercept for the Control group, our baseline for comparison. The (Intercept) does have a mathematical interpretation, but it does not have a practical interpretation. Why is this? Because the slope for age starts at zero. This is nonsensical for our purposes, as no voter can be of zero age.

Therefore, this model shows that, within the control group, the percent voting is 0.08 times 100.

How do we calculate our percent voting in the Neighbors group? Recall that the treatmentNeighbors median is not giving a standalone figure for this group, but rather represents the offset between the Control and Neighbors groups. To find the Neighbors value, we must add the offset to the original value: 0.16. This is nearly double the rate in the Control group!

Let’s turn to our age median. Begin by grouping our observations by age and counting by primary_06, which gives us counts for 1 (yes) or 0 (no) for number voting in each age category.

age <- ch9_sham %>% 
  group_by(age) %>% 
  count(primary_06) 

age

## # A tibble: 149 x 3
## # Groups:   age [77]
##      age primary_06     n
##    <int>      <int> <int>
##  1    20          0   119
##  2    20          1    15
##  3    21          0   120
##  4    21          1    15
##  5    22          0   150
##  6    22          1    24
##  7    23          0   119
##  8    23          1    19
##  9    24          0   102
## 10    24          1    21
## # … with 139 more rows
…
