Chapter 6 One Parameter | Preceptor’s Primer for Bayesian Big Data Science
…
FIGURE 6.7: Hand-drawn histogram of first 10 out of 33 proportions.

Observe the following details in the histogram:

At the low end, one group removed 50 beads from the urn with proportion red between 0.20 and 0.25.

At the high end, another group removed 50 beads from the urn with proportion between 0.45 and 0.5 red.

However, the most frequently occurring proportions were between 0.30 and 0.35 red, right in the middle of the distribution.

The distribution is somewhat bell-shaped.

tactile_sample_urn saves the results from our 33 groups of friends.

## # A tibble: 33 x 4
##    group         red_beads prop_red    ID
##    <chr>             <dbl>    <dbl> <int>
##  1 Mal, Francis         17     0.34     1
##  2 Nam, Joshua          19     0.38     2
##  3 Mark, Ramses         21     0.42     3
##  4 Maeve, Josh          18     0.36     4
##  5 Morgan, Emily        21     0.42     5
##  6 Ace, Chris           18     0.36     6
##  7 Mia, James           15     0.3      7
##  8 Griffin, Mary        18     0.36     8
##  9 Yuki, Harry          21     0.42     9
## 10 Frank, Clara         21     0.42    10
## # … with 23 more rows
…
6.2.1 Using the virtual shovel once

Let’s start by performing the virtual analog of the tactile sampling exercise we performed in Section 6.1. We first need a virtual analog of the urn seen in the beginning of our chapter. To this end, we create a tibble named urn. The rows of urn correspond exactly with the contents of the actual urn.

For reference, sample_frac() merely re-arranges the rows of the tibble. We use set.seed() to ensure that the beads in our virtual urn are always in the same order. This ensures that the figures in the book match their written descriptions.

set.seed(10)
urn <- tibble(color = c(rep("red", 900), rep("white", 1500))) %>%
  sample_frac() %>% 
  mutate(ID = 1:2400) %>% 
  select(ID, color)

urn  

## # A tibble: 2,400 x 2
##       ID color
##    <int> <chr>
##  1     1 red  
##  2     2 red  
##  3     3 white
##  4     4 white
##  5     5 white
##  6     6 white
##  7     7 red  
##  8     8 white
##  9     9 white
## 10    10 white
## # … with 2,390 more rows
…
In our tactile sampling exercise in Section 6.1, we had 33 groups of students use the shovel, yielding 33 samples of size 50 beads. We then used these 33 samples to compute 33 proportions. We can perform this repeated/replicated sampling virtually by just doing the same thing 33 times.

We’ll save these results in a data frame called virtual_samples.

set.seed(9)
virtual_samples <- tibble(ID = 1:33) %>% 
  mutate(shovel = map(ID, ~ sample_n(urn, size = 50))) %>% 
  mutate(numb_red = map_int(shovel, ~ sum(.$color == "red"))) %>% 
  mutate(numb_beads = map_int(shovel, ~ length(.$color))) %>% 
  mutate(prop_red = numb_red / numb_beads)

virtual_samples

## # A tibble: 33 x 5
##       ID shovel            numb_red numb_beads prop_red
##    <int> <list>               <int>      <int>    <dbl>
##  1     1 <tibble [50 × 2]>       25         50     0.5 
##  2     2 <tibble [50 × 2]>       23         50     0.46
##  3     3 <tibble [50 × 2]>       15         50     0.3 
##  4     4 <tibble [50 × 2]>       18         50     0.36
##  5     5 <tibble [50 × 2]>       21         50     0.42
##  6     6 <tibble [50 × 2]>       22         50     0.44
##  7     7 <tibble [50 × 2]>       21         50     0.42
##  8     8 <tibble [50 × 2]>       22         50     0.44
##  9     9 <tibble [50 × 2]>       18         50     0.36
## 10    10 <tibble [50 × 2]>       18         50     0.36
## # … with 23 more rows
…
FIGURE 6.9: So much sampling, so little time.

Now say we want to study the effects of sampling variation not for 33 samples, but for a larger number of samples (1000). We have two choices at this point. We could have our groups of friends manually take 1,000 samples of 50 beads and compute the corresponding 1,000 proportions. However, this would be time-consuming. This is where computers excel: automating long and repetitive tasks while performing them quickly. At this point, we will abandon tactile sampling in favor of virtual sampling.

set.seed(9)
virtual_samples <- tibble(ID = 1:1000) %>% 
  mutate(shovel = map(ID, ~ sample_n(urn, size = 50))) %>% 
  mutate(numb_red = map_int(shovel, ~ sum(.$color == "red"))) %>% 
  mutate(numb_beads = map_int(shovel, ~ length(.$color))) %>% 
  mutate(prop_red = numb_red / numb_beads)

virtual_samples

## # A tibble: 1,000 x 5
##       ID shovel            numb_red numb_beads prop_red
##    <int> <list>               <int>      <int>    <dbl>
##  1     1 <tibble [50 × 2]>       25         50     0.5 
##  2     2 <tibble [50 × 2]>       23         50     0.46
##  3     3 <tibble [50 × 2]>       15         50     0.3 
##  4     4 <tibble [50 × 2]>       18         50     0.36
##  5     5 <tibble [50 × 2]>       21         50     0.42
##  6     6 <tibble [50 × 2]>       22         50     0.44
##  7     7 <tibble [50 × 2]>       21         50     0.42
##  8     8 <tibble [50 × 2]>       22         50     0.44
##  9     9 <tibble [50 × 2]>       18         50     0.36
## 10    10 <tibble [50 × 2]>       18         50     0.36
## # … with 990 more rows
…
As we observed earlier, as the sample size increases, the variation decreases. In other words, there is less variation in the 1,000 values of the proportion red. So as the sample size increases, our guesses at the true proportion of the urn’s beads that are red get more precise. Therefore, the larger the shovel, the more precise the result!

6.2.5 Functions are your friend!

Note that in the last section, we ran more or less the same code three times, but with different sizes for our shovel (25, 50, and 100). Whenever you find yourself writing the same code three or more times, you should write a function that does the same thing. Let’s look at the code that used a shovel of size 25 and calculated the proportion of beads that were red one more time:

tibble(ID = 1:1000) %>% 
  mutate(shovel = map(ID, ~ sample_n(urn, size = 25))) %>% 
  mutate(numb_red = map_int(shovel, ~ sum(.$color == "red"))) %>% 
  mutate(numb_beads = map_int(shovel, ~ length(.$color))) %>% 
  mutate(prop_red = numb_red / numb_beads)

## # A tibble: 1,000 x 5
##       ID shovel            numb_red numb_beads prop_red
##    <int> <list>               <int>      <int>    <dbl>
##  1     1 <tibble [25 × 2]>       11         25     0.44
##  2     2 <tibble [25 × 2]>       11         25     0.44
##  3     3 <tibble [25 × 2]>       10         25     0.4 
##  4     4 <tibble [25 × 2]>       10         25     0.4 
##  5     5 <tibble [25 × 2]>        9         25     0.36
##  6     6 <tibble [25 × 2]>       10         25     0.4 
##  7     7 <tibble [25 × 2]>        8         25     0.32
##  8     8 <tibble [25 × 2]>       11         25     0.44
##  9     9 <tibble [25 × 2]>        7         25     0.28
## 10    10 <tibble [25 × 2]>        7         25     0.28
## # … with 990 more rows
…
