Chapter 5 Probability | Preceptor’s Primer for Bayesian Big Data Science
…
FIGURE 5.3: Bruno de Finetti, an Italian statistician who wrote a famous treatise on the theory of probability that began with the statement “PROBABILITY DOES NOT EXIST.” This is because probability only exists subjectively in our minds.

A probability distribution is not always easy to work with. It is a complex object. And, in many contexts, we don’t really care about all that complexity. So, instead of providing the full probability distribution, we often just use a summary measure, a number or two or three which captures those aspects of the entire distribution which are relevant to the matter at hand. Let’s explore these issues using the 538 posterior probability distribution, as of August 13, 2020, for the number of electoral votes which will be won by Joe Biden. Here is a tibble with 1,000,000 draws from that distribution:

draws

## # A tibble: 1,000,000 x 2
##       ID electoral_votes
##    <int>           <int>
##  1     1             327
##  2     2             297
##  3     3             413
##  4     4             319
##  5     5             151
##  6     6             337
##  7     7             210
##  8     8             435
##  9     9             201
## 10    10             325
## # … with 999,990 more rows
…
Let’s say you take a marble out of the bag, record whether it’s black or white, then return it to the bag. You repeat this three times, observing the number of white marbles you see out of three trials. You could get three whites, two whites, one white, or zero whites as a result of this trial. Let’s make what we call a Bayes scatterplot out of this. We have three models (three different proportions of white marbles in the bag) and four possible experimental results. Let’s create 3,000 draws from this joint distribution:

# Create the joint distribution of the number of white marbles in the bag
# (in_bag) and the number of white marbles pulled out in the sample (in_sample),
# one-by-one. in_bag takes three possible values: 0, 1 and 2, corresponding to
# zero, one and two white marbles potentially in the bag.

joint_dist <- tibble(in_bag = rep(c(0, 1, 2), 1000)) %>%
  mutate(in_sample = map_int(in_bag, ~ rbinom(n = 1, 
                                              size = 3, 
                                              p = ./2))) 

joint_dist

## # A tibble: 3,000 x 2
##    in_bag in_sample
##     <dbl>     <int>
##  1      0         0
##  2      1         2
##  3      2         3
##  4      0         0
##  5      1         0
##  6      2         3
##  7      0         0
##  8      1         2
##  9      2         3
## 10      0         0
## # … with 2,990 more rows
…
