Chapter 8 Three Parameters | Preceptor’s Primer for Bayesian Data Science
…
Recall the second question:

In a group of three Democrats and three Republicans, what will the age difference be between the oldest Democrat and the youngest Republican?

As before we start by creating a tibble with the desired input. Note that the name of the column (“party”) and the observations (“Democrat,” “Republican”) must always be exactly as they are in the original data set. This tibble as well as our model can then be used as arguments for posterior_predict():

newobs <- tibble(party = c("Democrat", "Democrat", "Democrat", 
                        "Republican", "Republican","Republican"))

posterior_predict(fit_1, newdata = newobs) %>%
    as_tibble() %>%
    mutate_all(as.numeric)

## # A tibble: 4,000 x 6
##      `1`   `2`   `3`   `4`   `5`   `6`
##    <dbl> <dbl> <dbl> <dbl> <dbl> <dbl>
##  1  38.7  59.6  52.6  43.3  48.8  41.5
##  2  34.3  56.0  31.4  45.8  59.5  39.1
##  3  25.4  15.1  28.6  41.8  38.3  43.9
##  4  56.4  27.2  33.8  34.6  60.1  48.2
##  5  63.2  31.6  49.3  43.7  53.5  27.8
##  6  24.6  45.0  57.1  69.3  64.1  53.8
##  7  52.8  35.8  41.3  62.2  60.4  58.0
##  8  42.9  40.6  57.4  38.5  34.7  30.1
##  9  47.7  22.6  32.5  52.9  47.6  35.1
## 10  40.7  25.3  49.7  40.6  42.2  48.2
## # … with 3,990 more rows
…
    set_names(c("dem_1", "dem_2", "dem_3", 
                "rep_1", "rep_2", "rep_3")) %>% 
    rowwise() %>% 
  
  # Creating three new columns. The first two are the highest age among
  # Democrats and the lowest age among Republicans, respectively. The third one
  # is the difference between the first two.
  
  mutate(dems_oldest = max(c_across(dem_1:dem_3)),
         reps_youngest = min(c_across(rep_1:rep_3)),
         age_diff = dems_oldest - reps_youngest)

pp

## # A tibble: 4,000 x 9
## # Rowwise: 
##    dem_1 dem_2 dem_3 rep_1 rep_2 rep_3 dems_oldest reps_youngest age_diff
##    <dbl> <dbl> <dbl> <dbl> <dbl> <dbl>       <dbl>         <dbl>    <dbl>
##  1  44.6  39.6  50.9  62.1  33.2  36.4        50.9          33.2    17.6 
##  2  55.1  42.5  43.1  33.9  30.4  49.5        55.1          30.4    24.6 
##  3  16.0  34.2  30.4  60.5  41.2  55.0        34.2          41.2    -7.03
##  4  31.9  34.6  43.5  57.7  28.3  49.5        43.5          28.3    15.2 
##  5  50.5  48.8  31.5  43.7  44.7  24.9        50.5          24.9    25.6 
##  6  26.6  35.1  39.2  53.5  32.4  33.0        39.2          32.4     6.79
##  7  47.4  32.7  54.8  44.6  12.0  30.4        54.8          12.0    42.8 
##  8  48.4  30.9  42.1  35.4  36.2  50.0        48.4          35.4    13.0 
##  9  55.8  52.3  40.0  55.3  30.3  37.1        55.8          30.3    25.5 
## 10  55.3  52.3  26.4  58.2  46.7  40.4        55.3          40.4    14.8 
## # … with 3,990 more rows
…
Could the true value of the average treatment effect be as much as 2 or as little as 1? Of course! The most likely value is around 1.5, but the variation in the data and the smallness of our sample cause the estimate to be imprecise. However, it is quite unlikely that the true average treatment effect is below zero.

We can use posterior_epred() to answer this question. Create a tibble and use it as we have done before:

newobs <- tibble(treatment = c("Treated", "Control"))

pe <- posterior_epred(fit_2, newobs) %>% 
    as_tibble() %>% 
    mutate(ate = `1` - `2`)

pe

## # A tibble: 4,000 x 3
##      `1`   `2`   ate
##    <dbl> <dbl> <dbl>
##  1 10.0   8.56 1.47 
##  2  9.94  8.33 1.61 
##  3 10.0   8.48 1.56 
##  4 10.6   8.28 2.36 
##  5 10.6   8.29 2.32 
##  6  9.26  8.81 0.449
##  7 10.4   8.42 1.96 
##  8 10.5   8.28 2.26 
##  9 10.8   8.51 2.25 
## 10 10.3   8.37 1.88 
## # … with 3,990 more rows
…
What is the largest effect size which still has a 1 in 10 chance of occurring?

Create a tibble which we can pass to posterior_predict(). The variables in the tibble which will be passed in as newdata. Fortunately, the tibble we created above is just what we need for this question also.

Consider the result of posterior_predict() for two people, one treated and one control. Take the difference.

pp <- posterior_predict(fit_2, 
                        newdata = newobs) %>%
    as_tibble() %>%
    mutate_all(as.numeric) %>% 
    mutate(te = `1` - `2`)
  
pp

## # A tibble: 4,000 x 3
##      `1`   `2`      te
##    <dbl> <dbl>   <dbl>
##  1  4.60  6.95 -2.35  
##  2 10.4  10.6  -0.264 
##  3 14.0   7.52  6.53  
##  4 12.2   6.29  5.86  
##  5  8.29  8.34 -0.0451
##  6 10.3   8.00  2.29  
##  7  8.40  5.36  3.04  
##  8 10.0   9.96  0.0732
##  9  6.27  5.93  0.339 
## 10  8.27  2.04  6.22  
## # … with 3,990 more rows
…
Recall our question:

What would you expect the income to be for a random 40 year old?

Given that we are looking for an expected value, we use posterior_epred().

newobs <- tibble(age = 40)

pe <- posterior_epred(fit_3, newdata = newobs) %>% 
  as_tibble() 

pe

## # A tibble: 4,000 x 1
##        `1`
##      <dbl>
##  1 131988.
##  2 132900.
##  3 143766.
##  4 149269.
##  5 138030.
##  6 135142.
##  7 145487.
##  8 147361.
##  9 131460.
## 10 147589.
## # … with 3,990 more rows
…
newobs <- tibble(income = c(rep(100000, 2),
                            rep(200000, 2),
                            rep(300000, 2),
                            rep(400000, 2)))

pp <- posterior_predict(fit_4, 
                        newdata = newobs) %>% 
  as_tibble() %>% 
  mutate_all(as.numeric) %>% 
  rowwise() %>% 
  mutate(total = sum(c_across()))

pp

## # A tibble: 4,000 x 9
## # Rowwise: 
##      `1`   `2`   `3`   `4`   `5`   `6`   `7`   `8` total
##    <dbl> <dbl> <dbl> <dbl> <dbl> <dbl> <dbl> <dbl> <dbl>
##  1     0     0     0     1     1     0     0     0     2
##  2     0     0     0     0     1     0     0     0     1
##  3     1     0     0     0     0     0     0     0     1
##  4     0     0     0     0     0     0     0     1     1
##  5     0     1     0     0     0     1     0     0     2
##  6     0     1     1     0     0     0     0     0     2
##  7     1     0     1     0     0     0     0     1     3
##  8     0     0     0     0     1     0     1     0     2
##  9     1     1     0     0     0     0     0     0     2
## 10     0     1     0     1     1     0     0     1     4
## # … with 3,990 more rows
…
