Chapter 1 Visualization | Preceptor’s Primer for Bayesian Big Data Science
…
If the text starts with “Warning,” figure out if it’s something to worry about. Think of warnings as a yellow traffic light: everything is working fine, but watch out/pay attention.

Otherwise, the text is just a message.Think of messages as a green traffic light: everything is working fine and keep on going!

1.1.5 Examining gapminder

Let’s put everything we’ve learned so far into practice and start exploring some real data! Data comes to us in a variety of formats, from pictures to text to numbers. Throughout this book, we’ll focus on datasets that are saved in “spreadsheet”-type format. This is probably the most common way data are collected and saved in many fields. These “spreadsheet”-type datasets are called data frames in R. Again, we will be using “data frame” and “tibble” interchangeably for this chapter.

We’ll begin by exploring the gapminder data frame in the gapminder package. This dataset is an excerpt of the Gapminder data on life expectancy, GDP per capita, and population by country.

library(gapminder)
gapminder

## # A tibble: 1,704 x 6
##    country     continent  year lifeExp      pop gdpPercap
##    <fct>       <fct>     <int>   <dbl>    <int>     <dbl>
##  1 Afghanistan Asia       1952    28.8  8425333      779.
##  2 Afghanistan Asia       1957    30.3  9240934      821.
##  3 Afghanistan Asia       1962    32.0 10267083      853.
##  4 Afghanistan Asia       1967    34.0 11537966      836.
##  5 Afghanistan Asia       1972    36.1 13079460      740.
##  6 Afghanistan Asia       1977    38.4 14880372      786.
##  7 Afghanistan Asia       1982    39.9 12881816      978.
##  8 Afghanistan Asia       1987    40.8 13867957      852.
##  9 Afghanistan Asia       1992    41.7 16317921      649.
## 10 Afghanistan Asia       1997    41.8 22227415      635.
## # … with 1,694 more rows

Let’s unpack this output:

A tibble: 1,704 x 6: A tibble is a specific kind of data frame in R. This particular data frame has 1,704 rows corresponding to different observations.

The tibble also has 6 columns corresponding to 6 variables describing each observation. country, continent, year,lifeExp, pop, and gdpPercap are the different variables of this dataset.

We see, by default, the top 10 rows. R is only showing the first 10 rows, since that is all that you probably want to see at first. You can see more (or fewer) rows with scrolling or using the print() command:

print(gapminder, n = 15)

## # A tibble: 1,704 x 6
##    country     continent  year lifeExp      pop gdpPercap
##    <fct>       <fct>     <int>   <dbl>    <int>     <dbl>
##  1 Afghanistan Asia       1952    28.8  8425333      779.
##  2 Afghanistan Asia       1957    30.3  9240934      821.
##  3 Afghanistan Asia       1962    32.0 10267083      853.
##  4 Afghanistan Asia       1967    34.0 11537966      836.
##  5 Afghanistan Asia       1972    36.1 13079460      740.
##  6 Afghanistan Asia       1977    38.4 14880372      786.
##  7 Afghanistan Asia       1982    39.9 12881816      978.
##  8 Afghanistan Asia       1987    40.8 13867957      852.
##  9 Afghanistan Asia       1992    41.7 16317921      649.
## 10 Afghanistan Asia       1997    41.8 22227415      635.
## 11 Afghanistan Asia       2002    42.1 25268405      727.
## 12 Afghanistan Asia       2007    43.8 31889923      975.
## 13 Albania     Europe     1952    55.2  1282697     1601.
## 14 Albania     Europe     1957    59.3  1476505     1942.
## 15 Albania     Europe     1962    64.8  1728137     2313.
## # … with 1,689 more rows
…
Much like how the + sign has to come at the end of lines when constructing plots, the pipe operator %>% has to come at the end of lines as well. Without the + at the end of the first row, your computer would not know to continue onto the second.

The code below filters the gapminder dataset to only show about Asia, opposed to having data on all continents.

gapminder %>% 
  filter(continent == "Asia")

## # A tibble: 396 x 6
##    country     continent  year lifeExp      pop gdpPercap
##    <fct>       <fct>     <int>   <dbl>    <int>     <dbl>
##  1 Afghanistan Asia       1952    28.8  8425333      779.
##  2 Afghanistan Asia       1957    30.3  9240934      821.
##  3 Afghanistan Asia       1962    32.0 10267083      853.
##  4 Afghanistan Asia       1967    34.0 11537966      836.
##  5 Afghanistan Asia       1972    36.1 13079460      740.
##  6 Afghanistan Asia       1977    38.4 14880372      786.
##  7 Afghanistan Asia       1982    39.9 12881816      978.
##  8 Afghanistan Asia       1987    40.8 13867957      852.
##  9 Afghanistan Asia       1992    41.7 16317921      649.
## 10 Afghanistan Asia       1997    41.8 22227415      635.
## # … with 386 more rows
…
FIGURE 1.1: Diagram of filter() rows operation.

The filter() function here works much like the “Filter” option in Microsoft Excel; it allows you to specify criteria about the values of a variable in your dataset and then filters out only the rows that match that criteria.

Let’s revisit the code from the previous section.

gapminder %>% 
  filter(continent == "Asia")

## # A tibble: 396 x 6
##    country     continent  year lifeExp      pop gdpPercap
##    <fct>       <fct>     <int>   <dbl>    <int>     <dbl>
##  1 Afghanistan Asia       1952    28.8  8425333      779.
##  2 Afghanistan Asia       1957    30.3  9240934      821.
##  3 Afghanistan Asia       1962    32.0 10267083      853.
##  4 Afghanistan Asia       1967    34.0 11537966      836.
##  5 Afghanistan Asia       1972    36.1 13079460      740.
##  6 Afghanistan Asia       1977    38.4 14880372      786.
##  7 Afghanistan Asia       1982    39.9 12881816      978.
##  8 Afghanistan Asia       1987    40.8 13867957      852.
##  9 Afghanistan Asia       1992    41.7 16317921      649.
## 10 Afghanistan Asia       1997    41.8 22227415      635.
## # … with 386 more rows
…
Let’s now use the mpg tibble to explore & and | operators. Let’s say we were interested in cars whose class is compact AND the manufacturer is Audi OR Volkswagen. We would use the following code:

mpg %>% 
  filter(class == "compact" &
        (manufacturer == "audi" | manufacturer == "volkswagen"))

## # A tibble: 29 x 11
##    manufacturer model    displ  year   cyl trans   drv     cty   hwy fl    class
##    <chr>        <chr>    <dbl> <int> <int> <chr>   <chr> <int> <int> <chr> <chr>
##  1 audi         a4         1.8  1999     4 auto(l… f        18    29 p     comp…
##  2 audi         a4         1.8  1999     4 manual… f        21    29 p     comp…
##  3 audi         a4         2    2008     4 manual… f        20    31 p     comp…
##  4 audi         a4         2    2008     4 auto(a… f        21    30 p     comp…
##  5 audi         a4         2.8  1999     6 auto(l… f        16    26 p     comp…
##  6 audi         a4         2.8  1999     6 manual… f        18    26 p     comp…
##  7 audi         a4         3.1  2008     6 auto(a… f        18    27 p     comp…
##  8 audi         a4 quat…   1.8  1999     4 manual… 4        18    26 p     comp…
##  9 audi         a4 quat…   1.8  1999     4 auto(l… 4        16    25 p     comp…
## 10 audi         a4 quat…   2    2008     4 manual… 4        20    28 p     comp…
## # … with 19 more rows

Note: We can often skip the use of & and just separate our conditions with a comma. The previous code will return the identical output as above.

mpg %>% 
  filter(class == "compact",
        (manufacturer == "audi" | manufacturer == "volkswagen"))

## # A tibble: 29 x 11
##    manufacturer model    displ  year   cyl trans   drv     cty   hwy fl    class
##    <chr>        <chr>    <dbl> <int> <int> <chr>   <chr> <int> <int> <chr> <chr>
##  1 audi         a4         1.8  1999     4 auto(l… f        18    29 p     comp…
##  2 audi         a4         1.8  1999     4 manual… f        21    29 p     comp…
##  3 audi         a4         2    2008     4 manual… f        20    31 p     comp…
##  4 audi         a4         2    2008     4 auto(a… f        21    30 p     comp…
##  5 audi         a4         2.8  1999     6 auto(l… f        16    26 p     comp…
##  6 audi         a4         2.8  1999     6 manual… f        18    26 p     comp…
##  7 audi         a4         3.1  2008     6 auto(a… f        18    27 p     comp…
##  8 audi         a4 quat…   1.8  1999     4 manual… 4        18    26 p     comp…
##  9 audi         a4 quat…   1.8  1999     4 auto(l… 4        16    25 p     comp…
## 10 audi         a4 quat…   2    2008     4 manual… 4        20    28 p     comp…
## # … with 19 more rows

Let’s present another example that uses the ! “not” operator to pick rows that don’t match a criteria. As mentioned earlier, the ! can be read as “not.” Here we are filtering rows corresponding to cars that are not manufactured by Audi or Volkswagen.

mpg %>% 
  filter(!(manufacturer == "audi" | manufacturer == "volkswagen"))

## # A tibble: 189 x 11
##    manufacturer model     displ  year   cyl trans  drv     cty   hwy fl    class
##    <chr>        <chr>     <dbl> <int> <int> <chr>  <chr> <int> <int> <chr> <chr>
##  1 chevrolet    c1500 su…   5.3  2008     8 auto(… r        14    20 r     suv  
##  2 chevrolet    c1500 su…   5.3  2008     8 auto(… r        11    15 e     suv  
##  3 chevrolet    c1500 su…   5.3  2008     8 auto(… r        14    20 r     suv  
##  4 chevrolet    c1500 su…   5.7  1999     8 auto(… r        13    17 r     suv  
##  5 chevrolet    c1500 su…   6    2008     8 auto(… r        12    17 r     suv  
##  6 chevrolet    corvette    5.7  1999     8 manua… r        16    26 p     2sea…
##  7 chevrolet    corvette    5.7  1999     8 auto(… r        15    23 p     2sea…
##  8 chevrolet    corvette    6.2  2008     8 manua… r        16    26 p     2sea…
##  9 chevrolet    corvette    6.2  2008     8 auto(… r        15    25 p     2sea…
## 10 chevrolet    corvette    7    2008     8 manua… r        15    24 p     2sea…
## # … with 179 more rows

Note the careful use of parentheses around the (manufacturer == "audi" | manufacturer == "volkswagen"). If we didn’t use parentheses as follows:

mpg %>%
  filter(!manufacturer == "audi" | manufacturer == "volkswagen")

## # A tibble: 216 x 11
##    manufacturer model     displ  year   cyl trans  drv     cty   hwy fl    class
##    <chr>        <chr>     <dbl> <int> <int> <chr>  <chr> <int> <int> <chr> <chr>
##  1 chevrolet    c1500 su…   5.3  2008     8 auto(… r        14    20 r     suv  
##  2 chevrolet    c1500 su…   5.3  2008     8 auto(… r        11    15 e     suv  
##  3 chevrolet    c1500 su…   5.3  2008     8 auto(… r        14    20 r     suv  
##  4 chevrolet    c1500 su…   5.7  1999     8 auto(… r        13    17 r     suv  
##  5 chevrolet    c1500 su…   6    2008     8 auto(… r        12    17 r     suv  
##  6 chevrolet    corvette    5.7  1999     8 manua… r        16    26 p     2sea…
##  7 chevrolet    corvette    5.7  1999     8 auto(… r        15    23 p     2sea…
##  8 chevrolet    corvette    6.2  2008     8 manua… r        16    26 p     2sea…
##  9 chevrolet    corvette    6.2  2008     8 auto(… r        15    25 p     2sea…
## 10 chevrolet    corvette    7    2008     8 manua… r        15    24 p     2sea…
## # … with 206 more rows

The code would read as cars NOT manufactured by Audi or cars that are actually manufactured by Volkswagen. In other words, “yes” to Audi or “no” to Volkswagen.

If we decided to include more manufacturers, it would be unwieldy to write. A slightly shorter approach uses the %in% operator along with the c() function. Recall that the c() function “combines” or “concatenates” values into a single vector of values.

mpg %>% 
  filter(manufacturer %in% c("audi","volkswagen","toyota"))

## # A tibble: 79 x 11
##    manufacturer model    displ  year   cyl trans   drv     cty   hwy fl    class
##    <chr>        <chr>    <dbl> <int> <int> <chr>   <chr> <int> <int> <chr> <chr>
##  1 audi         a4         1.8  1999     4 auto(l… f        18    29 p     comp…
##  2 audi         a4         1.8  1999     4 manual… f        21    29 p     comp…
##  3 audi         a4         2    2008     4 manual… f        20    31 p     comp…
##  4 audi         a4         2    2008     4 auto(a… f        21    30 p     comp…
##  5 audi         a4         2.8  1999     6 auto(l… f        16    26 p     comp…
##  6 audi         a4         2.8  1999     6 manual… f        18    26 p     comp…
##  7 audi         a4         3.1  2008     6 auto(a… f        18    27 p     comp…
##  8 audi         a4 quat…   1.8  1999     4 manual… 4        18    26 p     comp…
##  9 audi         a4 quat…   1.8  1999     4 auto(l… 4        16    25 p     comp…
## 10 audi         a4 quat…   2    2008     4 manual… 4        20    28 p     comp…
## # … with 69 more rows
…
## Rows: 1,704
## Columns: 6
## $ country   <fct> Afghanistan, Afghanistan, Afghanistan, Afghanistan, Afghani…
## $ continent <fct> Asia, Asia, Asia, Asia, Asia, Asia, Asia, Asia, Asia, Asia,…
## $ year      <int> 1952, 1957, 1962, 1967, 1972, 1977, 1982, 1987, 1992, 1997,…
## $ lifeExp   <dbl> 29, 30, 32, 34, 36, 38, 40, 41, 42, 42, 42, 44, 55, 59, 65,…
## $ pop       <int> 8425333, 9240934, 10267083, 11537966, 13079460, 14880372, 1…
## $ gdpPercap <dbl> 779, 821, 853, 836, 740, 786, 978, 852, 649, 635, 727, 975,…

However, say you only need 2 of these 6 variables, say continent and lifeExp. You can select() these two variables:

gapminder %>% 
  select(continent,lifeExp)

## # A tibble: 1,704 x 2
##    continent lifeExp
##    <fct>       <dbl>
##  1 Asia         28.8
##  2 Asia         30.3
##  3 Asia         32.0
##  4 Asia         34.0
##  5 Asia         36.1
##  6 Asia         38.4
##  7 Asia         39.9
##  8 Asia         40.8
##  9 Asia         41.7
## 10 Asia         41.8
## # … with 1,694 more rows

This function makes it easier to explore large datasets since it allows us to limit the scope to only those variables we care most about. For example, if we select() only a smaller number of variables, it will make viewing the dataset in RStudio’s spreadsheet viewer more digestible.

Let’s say instead you want to drop, or de-select, certain variables. For example, consider the variable year in the gapminder data frame. Say you want to look at all the variables except year. You can remove this variable from the data frame. We can deselect year by using the - sign:

gapminder %>% 
  select(-year)

## # A tibble: 1,704 x 5
##    country     continent lifeExp      pop gdpPercap
##    <fct>       <fct>       <dbl>    <int>     <dbl>
##  1 Afghanistan Asia         28.8  8425333      779.
##  2 Afghanistan Asia         30.3  9240934      821.
##  3 Afghanistan Asia         32.0 10267083      853.
##  4 Afghanistan Asia         34.0 11537966      836.
##  5 Afghanistan Asia         36.1 13079460      740.
##  6 Afghanistan Asia         38.4 14880372      786.
##  7 Afghanistan Asia         39.9 12881816      978.
##  8 Afghanistan Asia         40.8 13867957      852.
##  9 Afghanistan Asia         41.7 16317921      649.
## 10 Afghanistan Asia         41.8 22227415      635.
## # … with 1,694 more rows

Another way of selecting columns/variables is by specifying a range of columns using the : operator.

gapminder %>% 
  select(country:lifeExp)

## # A tibble: 1,704 x 4
##    country     continent  year lifeExp
##    <fct>       <fct>     <int>   <dbl>
##  1 Afghanistan Asia       1952    28.8
##  2 Afghanistan Asia       1957    30.3
##  3 Afghanistan Asia       1962    32.0
##  4 Afghanistan Asia       1967    34.0
##  5 Afghanistan Asia       1972    36.1
##  6 Afghanistan Asia       1977    38.4
##  7 Afghanistan Asia       1982    39.9
##  8 Afghanistan Asia       1987    40.8
##  9 Afghanistan Asia       1992    41.7
## 10 Afghanistan Asia       1997    41.8
## # … with 1,694 more rows

This will select() all columns between the two specified variables. By running this code, we select country, continent, year, and lifeExp.

The select() function can also be used to rearrange columns when used with the everything() helper function. For example, suppose we want the continent, country variables to appear immediately after the year variable, while not discarding the rest of the variables. In the following code, everything() will pick up all remaining variables:

gapminder %>% 
  select(year, continent, country, everything())

## # A tibble: 1,704 x 6
##     year continent country     lifeExp      pop gdpPercap
##    <int> <fct>     <fct>         <dbl>    <int>     <dbl>
##  1  1952 Asia      Afghanistan    28.8  8425333      779.
##  2  1957 Asia      Afghanistan    30.3  9240934      821.
##  3  1962 Asia      Afghanistan    32.0 10267083      853.
##  4  1967 Asia      Afghanistan    34.0 11537966      836.
##  5  1972 Asia      Afghanistan    36.1 13079460      740.
##  6  1977 Asia      Afghanistan    38.4 14880372      786.
##  7  1982 Asia      Afghanistan    39.9 12881816      978.
##  8  1987 Asia      Afghanistan    40.8 13867957      852.
##  9  1992 Asia      Afghanistan    41.7 16317921      649.
## 10  1997 Asia      Afghanistan    41.8 22227415      635.
## # … with 1,694 more rows

Lastly, the helper functions starts_with(), ends_with(), and contains() can be used to select variables/columns that match those conditions. Examples:

gapminder %>% 
  select(starts_with("c"))

## # A tibble: 1,704 x 2
##    country     continent
##    <fct>       <fct>    
##  1 Afghanistan Asia     
##  2 Afghanistan Asia     
##  3 Afghanistan Asia     
##  4 Afghanistan Asia     
##  5 Afghanistan Asia     
##  6 Afghanistan Asia     
##  7 Afghanistan Asia     
##  8 Afghanistan Asia     
##  9 Afghanistan Asia     
## 10 Afghanistan Asia     
## # … with 1,694 more rows

gapminder %>% 
  select(ends_with("p"))

## # A tibble: 1,704 x 3
##    lifeExp      pop gdpPercap
##      <dbl>    <int>     <dbl>
##  1    28.8  8425333      779.
##  2    30.3  9240934      821.
##  3    32.0 10267083      853.
##  4    34.0 11537966      836.
##  5    36.1 13079460      740.
##  6    38.4 14880372      786.
##  7    39.9 12881816      978.
##  8    40.8 13867957      852.
##  9    41.7 16317921      649.
## 10    41.8 22227415      635.
## # … with 1,694 more rows

gapminder %>% 
  select(contains("t"))

## # A tibble: 1,704 x 2
##    country     continent
##    <fct>       <fct>    
##  1 Afghanistan Asia     
##  2 Afghanistan Asia     
##  3 Afghanistan Asia     
##  4 Afghanistan Asia     
##  5 Afghanistan Asia     
##  6 Afghanistan Asia     
##  7 Afghanistan Asia     
##  8 Afghanistan Asia     
##  9 Afghanistan Asia     
## 10 Afghanistan Asia     
## # … with 1,694 more rows
…
## [1] 30 32 34 36

1.3.6 arrange() rows

One of the most commonly performed data wrangling tasks is to sort a data frame’s rows in the alphanumeric order of one of the variables. Unlike filter() or select(), arrange() does not remove any rows or columns from the data frame. Instead, the dplyr package’s arrange() function allows us to sort/reorder a data frame’s rows according to the values of the specified variable.

Suppose we are interested in finding which top 5 countries that have the highest life expectancies in the gapminder dataset.

We would first want to select() some pertinent variables to make the data more easy to read.

gapminder %>% 
  select(country, year, lifeExp)

## # A tibble: 1,704 x 3
##    country      year lifeExp
##    <fct>       <int>   <dbl>
##  1 Afghanistan  1952    28.8
##  2 Afghanistan  1957    30.3
##  3 Afghanistan  1962    32.0
##  4 Afghanistan  1967    34.0
##  5 Afghanistan  1972    36.1
##  6 Afghanistan  1977    38.4
##  7 Afghanistan  1982    39.9
##  8 Afghanistan  1987    40.8
##  9 Afghanistan  1992    41.7
## 10 Afghanistan  1997    41.8
## # … with 1,694 more rows
…
